<svg width="1442" height="991" viewBox="0 0 1442 991" fill="none" xmlns="http://www.w3.org/2000/svg">
<rect width="1442" height="990" fill="white"/>
<path d="M644.5 914C418.1 909.6 254.5 962.833 201 990H1441.5V531C1321 531 1089.5 604.5 927.5 755.5C797.9 876.3 684.833 911.5 644.5 914Z" fill="#F7F8FD"/>
<path d="M1442 766C1251.2 768.4 1025.17 916.333 936 990H1442V766Z" fill="#EEF1FA"/>
<path d="M1442 936C1370.4 936 1278.83 972.333 1242 990.5H1442V936Z" fill="#E0E6F4"/>
</svg>
